{
	"ImportPath": "bitbucket.org/ooja/pagequery",
	"GoVersion": "go1.4.2",
	"Deps": [
		{
			"ImportPath": "github.com/PuerkitoBio/goquery",
			"Comment": "v0.3.2-78-g60ec77b",
			"Rev": "60ec77b0032de8548a0d67f76154458850264a99"
		},
		{
			"ImportPath": "github.com/andybalholm/cascadia",
			"Rev": "54abbbf07a45a3ef346ebe903e0715d9a3c19352"
		},
		{
			"ImportPath": "github.com/stretchr/testify/assert",
			"Rev": "e22aedd37671fb115be6c0c25129c405cb575cfd"
		},
		{
			"ImportPath": "golang.org/x/net/html",
			"Rev": "a8c61998a557a37435f719980da368469c10bfed"
		}
	]
}
